^D:\OBRAZKY\GRAFIKA\ZOBRAZENIA\MYPAINTER\MYPAINTER.H
D:\OBRAZKY\GRAFIKA\ZOBRAZENIA\MYPAINTER\GENERATEDFILES\RELEASE\MOC_MYPAINTER.CPP
^D:\OBRAZKY\GRAFIKA\ZOBRAZENIA\MYPAINTER\MYPAINTER.UI
D:\OBRAZKY\GRAFIKA\ZOBRAZENIA\MYPAINTER\GENERATEDFILES\UI_MYPAINTER.H
^D:\OBRAZKY\GRAFIKA\ZOBRAZENIA\MYPAINTER\PAINTWIDGET.H
D:\OBRAZKY\GRAFIKA\ZOBRAZENIA\MYPAINTER\GENERATEDFILES\RELEASE\MOC_PAINTWIDGET.CPP
^D:\OBRAZKY\GRAFIKA\ZOBRAZENIA\MYPAINTER\MYPAINTER.QRC
D:\OBRAZKY\GRAFIKA\ZOBRAZENIA\MYPAINTER\GENERATEDFILES\QRC_MYPAINTER.CPP
